{
    "presets": [
      [
        "@babel/preset-react",
        {
          "targets": {
            "edge": "17",
            "firefox": "60",
            "chrome": "67",
            "safari": "11.1"
          },
          "useBuiltIns": "usage"
        }
      ]
    ]
  }